%YAML 1.1
%TAG !u! tag:unity3d.com,2011:
--- !u!1 &6519345639122893717
GameObject:
  m_ObjectHideFlags: 0
  m_CorrespondingSourceObject: {fileID: 0}
  m_PrefabInstance: {fileID: 0}
  m_PrefabAsset: {fileID: 0}
  serializedVersion: 6
  m_Component:
  - component: {fileID: 6519345639122893719}
  - component: {fileID: 6519345639122893716}
  m_Layer: 0
  m_Name: GameManagerAllINone
  m_TagString: Untagged
  m_Icon: {fileID: 0}
  m_NavMeshLayer: 0
  m_StaticEditorFlags: 0
  m_IsActive: 1
--- !u!4 &6519345639122893719
Transform:
  m_ObjectHideFlags: 0
  m_CorrespondingSourceObject: {fileID: 0}
  m_PrefabInstance: {fileID: 0}
  m_PrefabAsset: {fileID: 0}
  m_GameObject: {fileID: 6519345639122893717}
  m_LocalRotation: {x: 0, y: 0, z: 0, w: 1}
  m_LocalPosition: {x: -0.6112213, y: 1.0417981, z: -0.118056774}
  m_LocalScale: {x: 1, y: 1, z: 1}
  m_Children: []
  m_Father: {fileID: 0}
  m_RootOrder: 0
  m_LocalEulerAnglesHint: {x: 0, y: 0, z: 0}
--- !u!114 &6519345639122893716
MonoBehaviour:
  m_ObjectHideFlags: 0
  m_CorrespondingSourceObject: {fileID: 0}
  m_PrefabInstance: {fileID: 0}
  m_PrefabAsset: {fileID: 0}
  m_GameObject: {fileID: 6519345639122893717}
  m_Enabled: 1
  m_EditorHideFlags: 0
  m_Script: {fileID: 11500000, guid: 7f86eaa1b43062241aa2efaa5ef53746, type: 3}
  m_Name: 
  m_EditorClassIdentifier: 
  StartingFireLevel: 25
  fireDecRatePerSec: 1
  fireDecRatePerDifficulty:
  - 1.3
  - 1.6
  - 1.9
  - 2.35
  fireThreshold:
  - 0
  - 60
  - 120
  diffTimeThreshold:
  - 60
  - 120
  - 180
  - 270
  heartBeatIncreasingPitch:
  - 1
  - 1.25
  - 1.5
  heartBeatIncreasingVolume:
  - 0.5
  - 0.75
  - 1
  fire: {fileID: 0}
  tutorialText: {fileID: 0}
  textFadeInOut: {fileID: 0}
  AllAudioClips:
  - {fileID: 8300000, guid: ff720a3d04c49174e9790c6cfa88df4e, type: 3}
  - {fileID: 8300000, guid: af9b0bc0905e48744ac3809e42b5458c, type: 3}
  - {fileID: 8300000, guid: 33057d20d549ffa468e0f15b4fa0e0e6, type: 3}
  - {fileID: 8300000, guid: a1777d084b23c614988862246358bfc8, type: 3}
  - {fileID: 8300000, guid: 986bef2d37c192b43b6259fc4b28c00a, type: 3}
  - {fileID: 8300000, guid: 9e3477843c3ec124d9eaecb21c7df9ec, type: 3}
  - {fileID: 8300000, guid: df87d58da0cdb644d974d34af60d8520, type: 3}
  - {fileID: 8300000, guid: 419bf555f9e94af458ee14a98da9027e, type: 3}
  - {fileID: 8300000, guid: aefe90dd227f38d4798d6d83cacbb97b, type: 3}
  - {fileID: 8300000, guid: 7da80c30e93199a43b2c54754c1bf0cd, type: 3}
  - {fileID: 8300000, guid: 53fae420eec143442acbdc66d22eb18b, type: 3}
  - {fileID: 8300000, guid: ebafff081d551414d93b333911d837a9, type: 3}
  - {fileID: 8300000, guid: 9194f74014dc7dc4485a0417f3fc41c7, type: 3}
  - {fileID: 8300000, guid: 6263f6d2a1b17984eb49a27f1de49722, type: 3}
  - {fileID: 8300000, guid: 7e094e1e2c3453d4db95059f9cb55813, type: 3}
  - {fileID: 8300000, guid: b482c23d7df3c584ab247bf0f87515d2, type: 3}
  - {fileID: 8300000, guid: 8d32348212d2aa943a29c7d2b17b9368, type: 3}
  - {fileID: 8300000, guid: 6ca0652348ae89240b20bd2c9151ca37, type: 3}
  - {fileID: 8300000, guid: d1ab0ef29c21bba4fa7e265f2c8de22f, type: 3}
  - {fileID: 8300000, guid: f68f567a0f9cae64da87d9905f7c19ca, type: 3}
  - {fileID: 8300000, guid: c4be899dda14e3048953dcde9db304bf, type: 3}
  - {fileID: 8300000, guid: 83a5d28920e035349bb10fd5af4cb58e, type: 3}
  - {fileID: 8300000, guid: 0d7ff7150a2f7df43abbc364b21397b6, type: 3}
  - {fileID: 8300000, guid: 3e67db8f0dd05b545891de466d9d4af5, type: 3}
  - {fileID: 8300000, guid: 22476f36b3dfd0548936a071febf90a9, type: 3}
  - {fileID: 8300000, guid: 90e060e78ad032640895849ee4b22ab6, type: 3}
  - {fileID: 8300000, guid: cfedfa55fe35516449735971dec54531, type: 3}
  - {fileID: 8300000, guid: c0918e62e9a5f174e8d92c5723bb6c40, type: 3}
  - {fileID: 8300000, guid: 3f2cd6ed46d97234ba821433e88c2f81, type: 3}
  - {fileID: 8300000, guid: d9a6a1773e94b1047964b1d25e9023b5, type: 3}
  - {fileID: 8300000, guid: 1d7473a036a339947a46a8ec96b65d7f, type: 3}
  - {fileID: 8300000, guid: 756f62d017d438e41b5055c8d34fb12d, type: 3}
  - {fileID: 8300000, guid: a843a6a716e7d16408ba96a8ee6f5cd1, type: 3}
  - {fileID: 8300000, guid: e434785b2b50f9647ad4b0f497ac6f20, type: 3}
  - {fileID: 8300000, guid: 5b57333861c2c3944bf2404e2533969d, type: 3}
  bgmAudio: {fileID: 0}
  sfxAudio: {fileID: 0}
  monsterAudio: {fileID: 0}
  inFireAudio: {fileID: 0}
  pickupAudio: {fileID: 0}
  fireLevelAudio: {fileID: 0}
  gameStateAudio: {fileID: 0}
  tutorialAudio: {fileID: 0}
  fireAnim: {fileID: 0}
